
#Pocet vstupu
2
#Popis vstupu
vstup1 0 10
vstup2 0 10

#Koeficient uceni
0.3

#Trenovaci mnozina

#Pocet prvku
11
#Jednotlive Prvky
5 5 0
3 4 0
1.5 8 0
4 2 0
8 0.5 0
7 5.5 1
3 8 1
5 9 1
7.5 8.5 1
9.5 1 1
10 10 1

#Testovaci vstupy
#pocet
3
4.5 3
5 5
7 4