Neural network file
Saved at: 5.12.2015 17:35:16
Input nodes count: 
4
Inner nodes count: 
16
Output count: 
2
Connections count: 
72
Input connections for inner nodes: 
0;1;2;3;
4;5;6;7;
8;9;10;11;
12;13;14;15;
16;17;18;19;
20;21;22;23;
24;25;26;27;
28;29;30;31;
32;33;34;35;
36;37;38;39;
40;41;42;43;44;45;
46;47;48;49;50;51;
52;53;54;55;56;57;
58;59;60;61;62;63;
64;65;66;67;
68;69;70;71;
Input nodes for output connections: (input nodes first, inner indexed after them)
18
19
Input nodes for inner connections: (input nodes first, inner indexed after them)
0
1
2
3
0
1
2
3
0
1
2
3
0
1
2
3
4
5
6
7
4
5
6
7
4
5
6
7
4
5
6
7
4
5
6
7
4
5
6
7
8
9
10
11
12
13
8
9
10
11
12
13
8
9
10
11
12
13
8
9
10
11
12
13
14
15
16
17
14
15
16
17
Biases: 
0
0
0
0
0
0
0
0
0
0
0
0
0
0
0
0
Inner connections weights: 
0
0
0
0
0
0
0
0
0
0
0
0
0
0
0
0
0
0
0
0
0
0
0
0
0
0
0
0
0
0
0
0
0
0
0
0
0
0
0
0
0
0
0
0
0
0
0
0
0
0
0
0
0
0
0
0
0
0
0
0
0
0
0
0
0
0
0
0
0
0
0
0
