Neural network file
Saved at: 5.12.2015 17:27:37
Input nodes count: 
4
Inner nodes count: 
14
Output count: 
2
Connections count: 
56
Input connections for inner nodes: 
0;1;2;3;
4;5;6;7;
8;9;10;11;
12;13;14;15;
16;17;18;19;
20;21;22;23;
24;25;26;27;
28;29;30;31;
32;33;34;35;
36;37;38;39;
40;41;42;43;
44;45;46;47;
48;49;50;51;
52;53;54;55;
Input nodes for output connections: (input nodes first, inner indexed after them)
16
17
Input nodes for inner connections: (input nodes first, inner indexed after them)
0
1
2
3
0
1
2
3
0
1
2
3
0
1
2
3
4
5
6
7
4
5
6
7
4
5
6
7
4
5
6
7
8
9
10
11
8
9
10
11
8
9
10
11
8
9
10
11
12
13
14
15
12
13
14
15
Biases: 
0
0
0
0
0
0
0
0
0
0
0
0
0
0
Inner connections weights: 
0
0
0
0
0
0
0
0
0
0
0
0
0
0
0
0
0
0
0
0
0
0
0
0
0
0
0
0
0
0
0
0
0
0
0
0
0
0
0
0
0
0
0
0
0
0
0
0
0
0
0
0
0
0
0
0
